{
  "project_info": {
    "project_number": "580156373196",
    "project_id": "reprobooks-cdf23",
    "storage_bucket": "reprobooks-cdf23.appspot.com"
  },
  "client": [
    {
      "client_info": {
        "mobilesdk_app_id": "1:580156373196:android:e487d3f5c6a4a641e4ea69",
        "android_client_info": {
          "package_name": "shop.reprobooks.in"
        }
      },
      "oauth_client": [
        {
          "client_id": "580156373196-5rgksdg79gnsr2874oc7tredblrk3v2a.apps.googleusercontent.com",
          "client_type": 1,
          "android_info": {
            "package_name": "shop.reprobooks.in",
            "certificate_hash": "5e8f16062ea3cd2c4a0d547876baa6f38cabf626"
          }
        },
        {
          "client_id": "580156373196-2en6hoku6gvt9506etdtcuq8vg9bjcgs.apps.googleusercontent.com",
          "client_type": 3
        }
      ],
      "api_key": [
        {
          "current_key": "AIzaSyBZteAzVKTDNkYi9kYtksJls-ql2fzbQok"
        }
      ],
      "services": {
        "appinvite_service": {
          "other_platform_oauth_client": [
            {
              "client_id": "580156373196-2en6hoku6gvt9506etdtcuq8vg9bjcgs.apps.googleusercontent.com",
              "client_type": 3
            }
          ]
        }
      }
    }
  ],
  "configuration_version": "1"
}